{
  "project_info": {
    "project_id": "travex-91e95",
    "project_number": "373270279910",
    "name": "Travex"
  },
  "client": [
    {
      "client_info": {
        "mobilesdk_app_id": "1:373270279910:android:fac2181897a00640",
        "client_id": "android:org.technomobs.travex",
        "client_type": 1,
        "android_client_info": {
          "package_name": "org.technomobs.travex",
          "certificate_hash": []
        }
      },
      "oauth_client": [
        {
          "client_id": "373270279910-me39b2kfmsgue7af11t6e50cf6juig9t.apps.googleusercontent.com",
          "client_type": 1,
          "android_info": {
            "package_name": "org.technomobs.travex",
            "certificate_hash": "3520D535B4538A6DB3F8D592A4632F5886A0243F"
          }
        },
        {
          "client_id": "373270279910-niu2gs942kq3hfqpm4ulec56bflo9v0r.apps.googleusercontent.com",
          "client_type": 3
        }
      ],
      "api_key": [],
      "services": {
        "analytics_service": {
          "status": 1
        },
        "cloud_messaging_service": {
          "status": 1,
          "apns_config": []
        },
        "appinvite_service": {
          "status": 1,
          "other_platform_oauth_client": []
        },
        "google_signin_service": {
          "status": 2
        },
        "ads_service": {
          "status": 1
        }
      }
    }
  ],
  "client_info": [],
  "ARTIFACT_VERSION": "1"
}